Tidyr and stringr
…
## # A tibble: 6 x 5
##   country            `1952`        `1957`        `1962`        `1967`
##   <fct>               <dbl>         <dbl>         <dbl>         <dbl>
## 1 Afghanistan   6567086330.   7585448670.   8758855797.   9648014150.
## 2 Albania       2053669902.   2867792398.   3996988985.   5476396323.
## 3 Algeria      22725632678.  30956113720.  28061403854.  41433235247.
## 4 Angola       14899557133.  17460618347.  20603593596.  28980597822.
## 5 Argentina   105676319105. 134466639306. 151820757737. 184688236498.
## 6 Australia    87256254102. 106349227169. 131884573002. 172457986742.

gp_4 %>% 
  gather(key = 'year', value = 'gdp', '1952', '1957', '1962', '1967') 

## # A tibble: 568 x 3
##    country     year            gdp
##    <fct>       <chr>         <dbl>
##  1 Afghanistan 1952    6567086330.
##  2 Albania     1952    2053669902.
##  3 Algeria     1952   22725632678.
##  4 Angola      1952   14899557133.
##  5 Argentina   1952  105676319105.
##  6 Australia   1952   87256254102.
##  7 Austria     1952   42516266683.
##  8 Bahrain     1952    1188460759.
##  9 Bangladesh  1952   32082059995.
## 10 Belgium     1952   72838686716.
## #  with 558 more rows
…
Or can specify a range of rows

gp_4 %>% 
  gather(key = 'year', value = 'gdp', '1952':'1967')

Spread

spread() is the opposite of gather()

Use it when an observation is scattered across multiple rows

gp_2

## # A tibble: 3,408 x 5
##    country     continent  year type        value
##    <fct>       <fct>     <int> <chr>       <dbl>
##  1 Afghanistan Asia       1952 pop      8425333 
##  2 Afghanistan Asia       1952 gdp   6567086330.
##  3 Afghanistan Asia       1957 pop      9240934 
##  4 Afghanistan Asia       1957 gdp   7585448670.
##  5 Afghanistan Asia       1962 pop     10267083 
##  6 Afghanistan Asia       1962 gdp   8758855797.
##  7 Afghanistan Asia       1967 pop     11537966 
##  8 Afghanistan Asia       1967 gdp   9648014150.
##  9 Afghanistan Asia       1972 pop     13079460 
## 10 Afghanistan Asia       1972 gdp   9678553274.
## #  with 3,398 more rows
…
separate

When multiple variables are encoded in a single column

gp_3

## # A tibble: 1,704 x 4
##    country     continent  year gdpPercap           
##    <fct>       <fct>     <int> <chr>               
##  1 Afghanistan Asia       1952 6567086330/8425333  
##  2 Afghanistan Asia       1957 7585448670/9240934  
##  3 Afghanistan Asia       1962 8758855797/10267083 
##  4 Afghanistan Asia       1967 9648014150/11537966 
##  5 Afghanistan Asia       1972 9678553274/13079460 
##  6 Afghanistan Asia       1977 11697659231/14880372
##  7 Afghanistan Asia       1982 12598563401/12881816
##  8 Afghanistan Asia       1987 11820990309/13867957
##  9 Afghanistan Asia       1992 10595901589/16317921
## 10 Afghanistan Asia       1997 14121995875/22227415
## #  with 1,694 more rows

separate

gp_3 %>% 
  separate(col = gdpPercap, into = c('gdp', 'pop'), sep = '/')

## # A tibble: 1,704 x 5
##    country     continent  year gdp         pop     
##    <fct>       <fct>     <int> <chr>       <chr>   
##  1 Afghanistan Asia       1952 6567086330  8425333 
##  2 Afghanistan Asia       1957 7585448670  9240934 
##  3 Afghanistan Asia       1962 8758855797  10267083
##  4 Afghanistan Asia       1967 9648014150  11537966
##  5 Afghanistan Asia       1972 9678553274  13079460
##  6 Afghanistan Asia       1977 11697659231 14880372
##  7 Afghanistan Asia       1982 12598563401 12881816
##  8 Afghanistan Asia       1987 11820990309 13867957
##  9 Afghanistan Asia       1992 10595901589 16317921
## 10 Afghanistan Asia       1997 14121995875 22227415
## #  with 1,694 more rows

But note that gdp and pop are stored as characters!

separate

gp_3 %>% 
  separate(col = gdpPercap, into = c('gdp', 'pop'), sep = '/') %>% 
  mutate(gdp = as.numeric(gdp),
         pop = as.numeric(pop))

## # A tibble: 1,704 x 5
##    country     continent  year         gdp      pop
##    <fct>       <fct>     <int>       <dbl>    <dbl>
##  1 Afghanistan Asia       1952  6567086330  8425333
##  2 Afghanistan Asia       1957  7585448670  9240934
##  3 Afghanistan Asia       1962  8758855797 10267083
##  4 Afghanistan Asia       1967  9648014150 11537966
##  5 Afghanistan Asia       1972  9678553274 13079460
##  6 Afghanistan Asia       1977 11697659231 14880372
##  7 Afghanistan Asia       1982 12598563401 12881816
##  8 Afghanistan Asia       1987 11820990309 13867957
##  9 Afghanistan Asia       1992 10595901589 16317921
## 10 Afghanistan Asia       1997 14121995875 22227415
## #  with 1,694 more rows

separate

You can also split values of a column by ‘position’

gp_1 %>% 
  separate(col = year, into = c('century', 'year'), sep = 2)

## # A tibble: 1,704 x 6
##    country     continent century year       pop          gdp
##    <fct>       <fct>     <chr>   <chr>    <int>        <dbl>
##  1 Afghanistan Asia      19      52     8425333  6567086330.
##  2 Afghanistan Asia      19      57     9240934  7585448670.
##  3 Afghanistan Asia      19      62    10267083  8758855797.
##  4 Afghanistan Asia      19      67    11537966  9648014150.
##  5 Afghanistan Asia      19      72    13079460  9678553274.
##  6 Afghanistan Asia      19      77    14880372 11697659231.
##  7 Afghanistan Asia      19      82    12881816 12598563401.
##  8 Afghanistan Asia      19      87    13867957 11820990309.
##  9 Afghanistan Asia      19      92    16317921 10595901589.
## 10 Afghanistan Asia      19      97    22227415 14121995875.
## #  with 1,694 more rows
…
